Week 11b
…
---
# starwars

Let's look at some information by different species in the starwars films. How many individuals of each species are present across all starwars films?

``` r
starwars %>% 
  filter(!is.na(species)) %>% # remove the NAs
  count(species, sort = TRUE)
```

```
## # A tibble: 37 × 2
##    species      n
##    <chr>    <int>
##  1 Human       35
##  2 Droid        6
##  3 Gungan       3
##  4 Kaminoan     2
##  5 Mirialan     2
##  6 Twi'lek      2
##  7 Wookiee      2
##  8 Zabrak       2
##  9 Aleena       1
## 10 Besalisk     1
## # ℹ 27 more rows
```
…
