Week 8a
…
---
# tidytext

Let's count the most common words across all her books

``` r
cleaned_books %>%
  count(word, sort = TRUE) 
```

```
## # A tibble: 14,375 × 2
##    word      n
##    <chr> <int>
##  1 mr     3015
##  2 mrs    2446
##  3 must   2071
##  4 said   2041
##  5 much   1935
##  6 miss   1855
##  7 one    1831
##  8 well   1523
##  9 every  1456
## 10 think  1440
## # ℹ 14,365 more rows
```
…
