Week 4a
…
---
# filter only the female penguins
### As always, exact spelling and capitalization matters

After filtering

``` r
filter(.data = penguins, sex == "female" )
```

```
## # A tibble: 165 × 8
##    species island    bill_length_mm bill_depth_mm flipper_length_mm body_mass_g
##    <fct>   <fct>              <dbl>         <dbl>             <int>       <int>
##  1 Adelie  Torgersen           39.5          17.4               186        3800
##  2 Adelie  Torgersen           40.3          18                 195        3250
##  3 Adelie  Torgersen           36.7          19.3               193        3450
##  4 Adelie  Torgersen           38.9          17.8               181        3625
##  5 Adelie  Torgersen           41.1          17.6               182        3200
##  6 Adelie  Torgersen           36.6          17.8               185        3700
##  7 Adelie  Torgersen           38.7          19                 195        3450
##  8 Adelie  Torgersen           34.4          18.4               184        3325
##  9 Adelie  Biscoe              37.8          18.3               174        3400
## 10 Adelie  Biscoe              35.9          19.2               189        3800
## # ℹ 155 more rows
## # ℹ 2 more variables: sex <fct>, year <int>
```
…
[Please Read Here!](https://r4ds.hadley.nz/data-transform#sec-the-pipe)
---
# %>%

Filter only female penguins and add a new column that calculates the log body mass  
When you use %>% the dataframe carries over so you don't need to write it out anymore

``` r
penguins %>% # use penguin dataframe
  filter(sex == "female") %>% #select females
  mutate(log_mass = log(body_mass_g)) #calculate log biomass
```

```
## # A tibble: 165 × 9
##    species island    bill_length_mm bill_depth_mm flipper_length_mm body_mass_g
##    <fct>   <fct>              <dbl>         <dbl>             <int>       <int>
##  1 Adelie  Torgersen           39.5          17.4               186        3800
##  2 Adelie  Torgersen           40.3          18                 195        3250
##  3 Adelie  Torgersen           36.7          19.3               193        3450
##  4 Adelie  Torgersen           38.9          17.8               181        3625
##  5 Adelie  Torgersen           41.1          17.6               182        3200
##  6 Adelie  Torgersen           36.6          17.8               185        3700
##  7 Adelie  Torgersen           38.7          19                 195        3450
##  8 Adelie  Torgersen           34.4          18.4               184        3325
##  9 Adelie  Biscoe              37.8          18.3               174        3400
## 10 Adelie  Biscoe              35.9          19.2               189        3800
## # ℹ 155 more rows
## # ℹ 3 more variables: sex <fct>, year <int>, log_mass <dbl>
```

---
# Select

Use select() to select certain columns to remain in the dataframe

``` r
penguins %>% # use penguin dataframe
  filter(sex == "female") %>% #select females
  mutate(log_mass = log(body_mass_g)) %>% #calculate log biomass
  select(species, island, sex, log_mass)
```

```
## # A tibble: 165 × 4
##    species island    sex    log_mass
##    <fct>   <fct>     <fct>     <dbl>
##  1 Adelie  Torgersen female     8.24
##  2 Adelie  Torgersen female     8.09
##  3 Adelie  Torgersen female     8.15
##  4 Adelie  Torgersen female     8.20
##  5 Adelie  Torgersen female     8.07
##  6 Adelie  Torgersen female     8.22
##  7 Adelie  Torgersen female     8.15
##  8 Adelie  Torgersen female     8.11
##  9 Adelie  Biscoe    female     8.13
## 10 Adelie  Biscoe    female     8.24
## # ℹ 155 more rows
```
---
# Select

You can also use select() to rename columns.  
Here, we are renaming species to have a capital S

``` r
penguins %>% # use penguin dataframe
  filter(sex == "female") %>% #select females
  mutate(log_mass = log(body_mass_g)) %>% #calculate log biomass
  select(Species = species, island, sex, log_mass)
```

```
## # A tibble: 165 × 4
##    Species island    sex    log_mass
##    <fct>   <fct>     <fct>     <dbl>
##  1 Adelie  Torgersen female     8.24
##  2 Adelie  Torgersen female     8.09
##  3 Adelie  Torgersen female     8.15
##  4 Adelie  Torgersen female     8.20
##  5 Adelie  Torgersen female     8.07
##  6 Adelie  Torgersen female     8.22
##  7 Adelie  Torgersen female     8.15
##  8 Adelie  Torgersen female     8.11
##  9 Adelie  Biscoe    female     8.13
## 10 Adelie  Biscoe    female     8.24
## # ℹ 155 more rows
```
…
---
# remove NAs

drop_na() 
  - drops rows with NAs from a specific column

drop all the rows that are missing data on sex

``` r
penguins %>%
* drop_na(sex)
```

```
## # A tibble: 333 × 8
##    species island    bill_length_mm bill_depth_mm flipper_length_mm body_mass_g
##    <fct>   <fct>              <dbl>         <dbl>             <int>       <int>
##  1 Adelie  Torgersen           39.1          18.7               181        3750
##  2 Adelie  Torgersen           39.5          17.4               186        3800
##  3 Adelie  Torgersen           40.3          18                 195        3250
##  4 Adelie  Torgersen           36.7          19.3               193        3450
##  5 Adelie  Torgersen           39.3          20.6               190        3650
##  6 Adelie  Torgersen           38.9          17.8               181        3625
##  7 Adelie  Torgersen           39.2          19.6               195        4675
##  8 Adelie  Torgersen           41.1          17.6               182        3200
##  9 Adelie  Torgersen           38.6          21.2               191        3800
## 10 Adelie  Torgersen           34.6          21.1               198        4400
## # ℹ 323 more rows
## # ℹ 2 more variables: sex <fct>, year <int>
```
…
